…
``` r
dn_lq_nc <- dn_lq_nc %>%
  mutate(distance = haversine(longitude.x, latitude.x, longitude.y, latitude.y))

view(dn_lq_nc)
```

``` r
dn_lq_nc_mindist <- dn_lq_nc %>%
  group_by(address.x) %>%
  summarize(closest = min(distance))
dn_lq_nc_mindist
```

    ## # A tibble: 28 × 2
    ##    address.x                 closest
    ##    <chr>                       <dbl>
    ##  1 1 Regent Park Boulevard     108. 
    ##  2 101 Wintergreen Dr          120. 
    ##  3 103 Sedgehill Dr             26.7
    ##  4 1043 Jimmie Kerr Road        36.1
    ##  5 1201 S College Road         188. 
    ##  6 1209 Burkemount Avenue       39.1
    ##  7 1493 Us Hwy 74-A Bypass      70.1
    ##  8 1524 Dabney Dr               59.5
    ##  9 1550 Four Seasons           115. 
    ## 10 1800 Princeton-Kenly Road    55.9
    ## # ℹ 18 more rows
…
``` r
dn_lq_tx <- dn_lq_tx %>%
  mutate(distance = haversine(longitude.x, latitude.x, longitude.y, latitude.y))

view(dn_lq_tx)
```

``` r
dn_lq_tx_mindist <- dn_lq_tx %>%
  group_by(address.x) %>%
  summarize(closest = min(distance))
dn_lq_tx_mindist
```

    ## # A tibble: 200 × 2
    ##    address.x             closest
    ##    <chr>                   <dbl>
    ##  1 100 Cottonwood         33.6  
    ##  2 100 E Pinehurst         1.39 
    ##  3 100 Us Highway 79 S    33.9  
    ##  4 101 N Fm 707           10.3  
    ##  5 1011 Beltway Parkway   14.0  
    ##  6 1015 Spur 350 West      1.74 
    ##  7 1015 West Main St       1.10 
    ##  8 10367 Highway 59       37.6  
    ##  9 10433 N Central Expwy   0.618
    ## 10 105 W 42nd St           6.88 
    ## # ℹ 190 more rows
…
